{
  "files": {
    "main.css": "/static/css/main.fc3e0830.chunk.css",
    "main.js": "/static/js/main.307dde82.chunk.js",
    "main.js.map": "/static/js/main.307dde82.chunk.js.map",
    "runtime~main.js": "/static/js/runtime~main.c5541365.js",
    "runtime~main.js.map": "/static/js/runtime~main.c5541365.js.map",
    "static/js/2.7e0c2b18.chunk.js": "/static/js/2.7e0c2b18.chunk.js",
    "static/js/2.7e0c2b18.chunk.js.map": "/static/js/2.7e0c2b18.chunk.js.map",
    "index.html": "/index.html",
    "precache-manifest.18fee5b65eb31779407f5e294625e4c8.js": "/precache-manifest.18fee5b65eb31779407f5e294625e4c8.js",
    "service-worker.js": "/service-worker.js",
    "static/css/main.fc3e0830.chunk.css.map": "/static/css/main.fc3e0830.chunk.css.map"
  }
}